Selecting the max value from each group, a case study: dplyr and sparklyr - Random R Ramblings
…
Introduction

In my last post we looked at how to slice a data.table by group to obtain the rows for which a particular column in that group is at its maximum value using the excellent data.table package. In this post, we will be taking a look at how to perform this task using dplyr and sparklyr.

dplyr

First, let’s take a look at our data.

library(dplyr)
mtcars <- mtcars %>% 
  tibble::rownames_to_column(var = "car") %>% 
  tibble::as_tibble()
mtcars
# # A tibble: 32 x 12
#    car      mpg   cyl  disp    hp  drat    wt  qsec    vs    am  gear  carb
#    <chr>  <dbl> <dbl> <dbl> <dbl> <dbl> <dbl> <dbl> <dbl> <dbl> <dbl> <dbl>
#  1 Mazda…  21       6  160    110  3.9   2.62  16.5     0     1     4     4
#  2 Mazda…  21       6  160    110  3.9   2.88  17.0     0     1     4     4
#  3 Datsu…  22.8     4  108     93  3.85  2.32  18.6     1     1     4     1
#  4 Horne…  21.4     6  258    110  3.08  3.22  19.4     1     0     3     1
#  5 Horne…  18.7     8  360    175  3.15  3.44  17.0     0     0     3     2
#  6 Valia…  18.1     6  225    105  2.76  3.46  20.2     1     0     3     1
#  7 Duste…  14.3     8  360    245  3.21  3.57  15.8     0     0     3     4
#  8 Merc …  24.4     4  147.    62  3.69  3.19  20       1     0     4     2
#  9 Merc …  22.8     4  141.    95  3.92  3.15  22.9     1     0     4     2
# 10 Merc …  19.2     6  168.   123  3.92  3.44  18.3     1     0     4     4
# # … with 22 more rows
…
